﻿"Date","Time","TimeZone","Name","Type","Status","Currency","Gross","Fee","Net","From Email Address","To Email Address","Transaction ID","Item Title","Reference Txn ID","Receipt ID","Balance"
"06/09/2019","02:37:06","EDT","Bob Butler","Express Checkout Payment","Completed","USD","88.00","-4.17","83.83","xxxxxxxxx@somemail.com","owner@somemail.com","2J554119RM258235S","Golden Bridge Segway Tour","17J468393T746202A","","10,491.02"
"06/10/2019","09:37:39","EDT","Jessica Trexler","Payment Refund","Completed","USD","-78.00","2.26","-75.74","owner@somemail.com","xxxxxxxxx@somemail.com","9FG347486N6288934","Golden Bridge Walking Tour","04H546690B175670Y","","10,415.28"
"06/10/2019","09:38:49","EDT","","General Withdrawal","Completed","USD","-10,000.00","0.00","-10,000.00","owner@somemail.com","","4JD96987M9177121S","","","","415.28"
"06/13/2019","12:28:46","EDT","helen feldman","Express Checkout Payment","Completed","USD","132.00","-4.13","127.87","xxxxxxxxx@somemail.com","owner@somemail.com","909902967R9506949","Golden Bridge Segway Tour","0RK20512NK635191N","","543.15"
"06/15/2019","12:28:00","EDT","lee williams","Express Checkout Payment","Completed","USD","98.00","-3.14","94.86","xxxxxxxxx@somemail.com","owner@somemail.com","2XP01778EC472162V","Golden Bridge Van Tour","15E71146KW7335338","","638.01"
"06/17/2019","12:35:24","EDT","Maria McGowan","Express Checkout Payment","Completed","USD","88.00","-2.85","85.15","xxxxxxxxx@somemail.com","owner@somemail.com","4SY45675PW757784Y","Golden Bridge Segway Tour","5W423021FP772012P","","723.16"
"06/19/2019","12:03:33","EDT","Linda Maggiora","Express Checkout Payment","Completed","USD","190.00","-5.81","184.19","xxxxxxxxx@somemail.com","owner@somemail.com","74M80072M1435005S","Golden Bridge Segway Tour","5WM48247NR7995632","","907.35"
"06/20/2019","10:01:57","EDT","NEXCESS.NET","Subscription Payment","Completed","USD","-24.95","0.00","-24.95","owner@somemail.com","xxxxxxxxx@somemail.com","8GV23922JP457235U","Order: #38070","I-VY5GCETACTUR","","882.40"
"06/21/2019","22:37:11","EDT","Susan Garimella","Express Checkout Payment","Completed","USD","78.00","-2.56","75.44","xxxxxxxxx@somemail.com","owner@somemail.com","9RA4965893126504G","Golden Bridge Walking Tour","2LA67822EP5077613","","957.84"
"06/22/2019","10:53:27","EDT","Nancy DeOllos","Express Checkout Payment","Completed","USD","476.00","-14.10","461.90","xxxxxxxxx@somemail.com","owner@somemail.com","4R6148954R551753G","Golden Bridge Van Tour","7U580368MM581410X","","1,419.74"
"06/22/2019","14:01:48","EDT","Margaret Interiors","Express Checkout Payment","Completed","USD","78.00","-2.56","75.44","xxxxxxxxx@somemail.com","owner@somemail.com","9GL79159S96430901","Golden Bridge Walking Tour","40R41592SG829054L","","1,495.18"
"06/24/2019","11:19:08","EDT","Barbara Bielenberg","Express Checkout Payment","Completed","USD","78.00","-3.73","74.27","xxxxxxxxx@somemail.com","owner@somemail.com","0V689130W8657951P","Golden Bridge Walking Tour","9HV27668NN702772D","","1,569.45"
"06/25/2019","10:46:49","EDT","9171-5573 Quebec Inc","Website Payment","Completed","USD","-25.00","0.00","-25.00","owner@somemail.com","xxxxxxxxx@somemail.com","3EA18016H8675633N","Account Deposit","","","1,544.45"
"06/26/2019","11:36:54","EDT","Karen Harvey","Express Checkout Payment","Completed","USD","178.00","-5.46","172.54","xxxxxxxxx@somemail.com","owner@somemail.com","1YN98356TE548220Y","Golden Bridge Van Tour","41F09665H11218416","","1,716.99"
"06/26/2019","20:55:04","EDT","Donna Hooper","Express Checkout Payment","Completed","USD","316.00","-9.46","306.54","xxxxxxxxx@somemail.com","owner@somemail.com","71B50219KD111450S","Golden Bridge Van Tour","1DC36207FS1477914","","2,023.53"
"06/26/2019","22:40:36","EDT","Rebecca Santamaria","Website Payment","Completed","USD","32.00","-1.23","30.77","xxxxxxxxx@somemail.com","owner@somemail.com","8KP36501VV786531M","All day Scooter Rental 1 Adult(s),0 kid(s)","","1496422387539690","2,054.30"
"06/26/2019","22:51:51","EDT","kevin woodroof","Website Payment","Completed","USD","28.00","-1.11","26.89","xxxxxxxxx@somemail.com","owner@somemail.com","68J9199491255780V","2 Hours Scooter Rental 2 Adult(s),0 kid(s)","","1893633864348814","2,081.19"
"06/27/2019","21:32:13","EDT","Brian Rementilla","Express Checkout Payment","Completed","USD","186.00","-8.48","177.52","xxxxxxxxx@somemail.com","owner@somemail.com","2DW70611JF105662D","Golden Bridge Van Tour","3TN12148931246535","","2,258.71"
"06/27/2019","23:34:49","EDT","Ronald Foltz","Express Checkout Payment","Completed","USD","88.00","-2.85","85.15","xxxxxxxxx@somemail.com","owner@somemail.com","7BA749640P7978510","Golden Bridge Segway Tour","20958670ES490234N","","2,343.86"
"06/28/2019","17:14:04","EDT","Ashley Gallagher","Express Checkout Payment","Completed","USD","147.00","-6.77","140.23","xxxxxxxxx@somemail.com","owner@somemail.com","8NJ08176SW522443H","Golden Bridge Van Tour","8NU31311JD736592D","","2,484.09"
"06/28/2019","18:59:48","EDT","Susan O'Donnell","Express Checkout Payment","Completed","USD","88.00","-2.85","85.15","xxxxxxxxx@somemail.com","owner@somemail.com","8FU43748SM080403K","Golden Bridge Segway Tour","6U554163H1797321M","","2,569.24"
"06/29/2019","06:21:53","EDT","Matthew Hinchliffe","Express Checkout Payment","Completed","USD","238.00","-10.77","227.23","xxxxxxxxx@somemail.com","owner@somemail.com","000963961N935244U","Golden Bridge Van Tour","8W198869MP590821H","","2,796.47"
"06/29/2019","11:14:37","EDT","Sandra Bond","Express Checkout Payment","Completed","USD","98.00","-3.14","94.86","xxxxxxxxx@somemail.com","owner@somemail.com","19M49970KV698801K","Golden Bridge Van Tour","66X19343H7191774V","","2,891.33"
"06/29/2019","20:20:28","EDT","Hitex, Inc","eBay Auction Payment","Completed","USD","-37.95","0.00","-37.95","owner@somemail.com","To get contact details, please visit your Order details on MyeBay","00P27168C3807945G","Kingston 8GB 1Rx8 PC4 2400R DDR4-2400/PC4-19200 ACR24D4U7S8MB-8 Memory RAM","","","2,853.38"
"06/29/2019","20:20:29","EDT","eBay Inc","Import tax payment","Completed","USD","-3.37","0.00","-3.37","owner@somemail.com","To get contact details, please visit your Order details on MyeBay","8PK338917A4305201","Sales Tax","","","2,850.01"
"06/30/2019","07:45:27","EDT","Betty Banu","Express Checkout Payment","Completed","USD","146.00","-4.53","141.47","xxxxxxxxx@somemail.com","owner@somemail.com","7AE62601AN612083C","Golden Bridge Walking Tour","47511370BP285314G","","2,991.48"
"07/03/2019","20:38:40","EDT","Holistic Solutions, Inc.","Website Payment","Completed","USD","-26.97","0.00","-26.97","owner@somemail.com","xxxxxxxxx@somemail.com","72N67724C0752122P","Holistic Solutions, Inc. - Invoice #541046","","","2,964.51"
"07/04/2019","11:51:12","EDT","Sarah Lukaszewski","Express Checkout Payment","Completed","USD","199.00","-6.07","192.93","xxxxxxxxx@somemail.com","owner@somemail.com","33X82223B8854591X","Golden Bridge Private Walking Tour","21X56142F73709049","","3,157.44"
"07/05/2019","08:56:50","EDT","melissa baaklini","Express Checkout Payment","Completed","USD","44.00","-1.58","42.42","xxxxxxxxx@somemail.com","owner@somemail.com","9G599270AC649142H","Golden Bridge Segway Tour","9V582876M9464723L","","3,199.86"
"07/07/2019","08:20:56","EDT","Mark Gaunt","Website Payment","Completed","USD","56.00","-2.76","53.24","xxxxxxxxx@somemail.com","owner@somemail.com","5XB40901KH7793250","2 Hours Scooter Rental 4 Adult(s),0 kid(s)","","","3,253.10"
"07/08/2019","16:16:32","EDT","Bee Sports (TCA.FIT)","Express Checkout Payment","Completed","USD","88.00","-4.17","83.83","xxxxxxxxx@somemail.com","owner@somemail.com","12A66922BU4874124","Golden Bridge Segway Tour","56P65309XW1599221","","3,336.93"
"07/08/2019","23:24:31","EDT","Lisa Fairbanks","Website Payment","Completed","USD","96.00","-3.08","92.92","xxxxxxxxx@somemail.com","owner@somemail.com","75V58046FW9431828","All day Scooter Rental 1 Adult(s),2 kid(s)","","1415300626641667","3,429.85"
"07/09/2019","10:37:41","EDT","Dorothy Seit","Express Checkout Payment","Completed","USD","132.00","-4.13","127.87","xxxxxxxxx@somemail.com","owner@somemail.com","0LK298969N366532A","Golden Bridge Segway Tour","1T044507008261747","","3,557.72"
"07/10/2019","23:10:08","EDT","Susan Tongson","Express Checkout Payment","Completed","USD","44.00","-1.58","42.42","xxxxxxxxx@somemail.com","owner@somemail.com","5F3493716T907305C","Golden Bridge Segway Tour","63J625746J650163W","","3,600.14"
"07/11/2019","08:16:09","EDT","Stephanie Ikuta","Website Payment","Completed","USD","72.00","-2.39","69.61","xxxxxxxxx@somemail.com","owner@somemail.com","35D316500C978383W","3 Hours Scooter Rental 4 Adult(s),0 kid(s)","","1835952413432965","3,669.75"
"07/14/2019","15:07:07","EDT","Sandra Grzeskiewicz","Express Checkout Payment","Completed","USD","247.00","-7.46","239.54","xxxxxxxxx@somemail.com","owner@somemail.com","7HF08865WE5085451","Golden Bridge Van Tour","5CJ39302AY6085632","","3,909.29"
"07/14/2019","18:12:26","EDT","Nancy Glaser","Express Checkout Payment","Completed","USD","137.00","-4.27","132.73","xxxxxxxxx@somemail.com","owner@somemail.com","5AC59081VV8900231","Golden Bridge Van Tour","0S270013L2419811B","","4,042.02"
"07/14/2019","20:22:08","EDT","Nancy Glaser","Express Checkout Payment","Completed","USD","78.00","-2.56","75.44","xxxxxxxxx@somemail.com","owner@somemail.com","3FF252255R801862K","Golden Bridge Segway Tour","2LT17469F85890019","","4,117.46"
"07/15/2019","08:36:49","EDT","Karen Clark","Express Checkout Payment","Completed","USD","196.00","-5.98","190.02","xxxxxxxxx@somemail.com","owner@somemail.com","1FA08036YA0402536","Golden Bridge Van Tour","5P9678498G5939625","","4,307.48"
"07/15/2019","09:42:36","EDT","paul sonnier","Website Payment","Completed","USD","70.00","-2.33","67.67","xxxxxxxxx@somemail.com","owner@somemail.com","0PX35559LJ257253C","2 Hours Scooter Rental 3 Adult(s),2 kid(s)","","5090458254915457","4,375.15"
"07/15/2019","10:30:56","EDT","Rebcecca Ambrose","Express Checkout Payment","Completed","USD","176.00","-8.04","167.96","xxxxxxxxx@somemail.com","owner@somemail.com","6FG43423SH369745E","Golden Bridge Segway Tour","09429514CJ3576213","","4,543.11"
"07/16/2019","14:27:29","EDT","Diet Papa","Express Checkout Payment","Completed","USD","88.00","-2.85","85.15","xxxxxxxxx@somemail.com","owner@somemail.com","5J594620RV4493327","Golden Bridge Segway Tour","3FM84586FD702891T","","4,628.26"
"07/20/2019","01:10:42","EDT","Mary Grady","Express Checkout Payment","Completed","USD","238.00","-7.20","230.80","xxxxxxxxx@somemail.com","owner@somemail.com","6T711854LV084013Y","Golden Bridge Van Tour","12M77255JV8576609","","4,859.06"
"07/20/2019","07:46:24","EDT","NEXCESS.NET","Subscription Payment","Completed","USD","-24.95","0.00","-24.95","owner@somemail.com","xxxxxxxxx@somemail.com","8UC02161F6782202K","Order: #38070","I-VY5GCETACTUR","","4,834.11"
"07/24/2019","09:56:36","EDT","Patricia Bennett","Express Checkout Payment","Completed","USD","88.00","-2.85","85.15","xxxxxxxxx@somemail.com","owner@somemail.com","00149756Y2211051S","Golden Bridge Van Tour","0C9839772S013004P","","4,919.26"
"07/26/2019","12:06:32","EDT","Linda Murphy","Express Checkout Payment","Completed","USD","44.00","-1.58","42.42","xxxxxxxxx@somemail.com","owner@somemail.com","1YS34049TP8316113","Golden Bridge Segway Tour","66R20471AT470783X","","4,961.68"
"07/26/2019","21:55:06","EDT","Susan Husain","Express Checkout Payment","Completed","USD","39.00","-1.43","37.57","xxxxxxxxx@somemail.com","owner@somemail.com","2TN45773XF8898323","Golden Bridge Walking Tour","1A120006GW2087033","","4,999.25"
"07/26/2019","22:03:15","EDT","Susan Husain","Express Checkout Payment","Completed","USD","44.00","-1.58","42.42","xxxxxxxxx@somemail.com","owner@somemail.com","7D6707298N9723545","Golden Bridge Segway Tour","77M470320S784714S","","5,041.67"
"07/27/2019","23:08:50","EDT","Lnda Oh","Express Checkout Payment","Completed","USD","178.00","-5.46","172.54","xxxxxxxxx@somemail.com","owner@somemail.com","33B98661FT672531R","Golden Bridge Van Tour","2P865010NG4001248","","5,214.21"
"07/29/2019","13:18:55","EDT","Linda Oh","Payment Refund","Completed","USD","-178.00","5.16","-172.84","owner@somemail.com","xxxxxxxxx@somemail.com","0XV95133EL8441052","Golden Bridge Van Tour","33B98661FT672531R","","5,041.37"
"07/29/2019","16:27:09","EDT","Joe Crowley","Express Checkout Payment","Completed","USD","178.00","-5.46","172.54","xxxxxxxxx@somemail.com","owner@somemail.com","9X0772142G472483Y","Golden Bridge Van Tour","1M2843941K3067922","","5,213.91"
"08/01/2019","23:38:34","EDT","Bob Smith","Express Checkout Payment","Completed","USD","132.00","-4.13","127.87","xxxxxxxxx@somemail.com","owner@somemail.com","01M00898D6758762M","Golden Bridge Segway Tour","69A23871XV9618749","","5,341.78"
"08/02/2019","07:58:58","EDT","Charles Kessler","Express Checkout Payment","Completed","USD","39.00","-1.43","37.57","xxxxxxxxx@somemail.com","owner@somemail.com","16D472270M7818947","Golden Bridge Walking Tour","44991463U06768138","","5,379.35"
"08/02/2019","09:38:31","EDT","sarah williams","Express Checkout Payment","Completed","USD","238.00","-10.77","227.23","xxxxxxxxx@somemail.com","owner@somemail.com","44N651946B974592E","Golden Bridge Van Tour","3AW55004UN575364R","","5,606.58"
"08/06/2019","13:40:02","EDT","daniel brown","Express Checkout Payment","Completed","USD","196.00","-5.98","190.02","xxxxxxxxx@somemail.com","owner@somemail.com","9SN88937E86610055","Golden Bridge Van Tour","6WD560475T764070X","","5,796.60"
